transcript
# vsim -c work.riscv_tb -do "run -all; quit" 
# Start time: 12:45:47 on Mar 11,2026
# Loading work.riscv_tb
# Loading work.riscv_top
# Loading work.pc_register
# Loading work.adder
# Loading work.instruction_memory
# Loading work.control_unit
# Loading work.register_file
# Loading work.imm_gen
# Loading work.alu_control
# Loading work.mux2to1
# Loading work.alu
# Loading work.branch_control
# Loading work.data_memory
# Loading work.sha256
# Loading work.mux4to1
# ** Warning: (vsim-2685) [TFMPC] - Too few port connections for 'dut'.  Expected 4, found 2.
#    Time: 0 ps  Iteration: 0  Instance: /riscv_tb/dut File: riscv_tb.v Line: 18
# ** Warning: (vsim-3722) riscv_tb.v(18): [TFMPC] - Missing connection for port 'out_pc'.
# ** Warning: (vsim-3722) riscv_tb.v(18): [TFMPC] - Missing connection for port 'out_alu_result'.
# run -all
# [25000] PC=0x0000000000000000  Instr=0x00000093  x1=0  x2=0
# [35000] PC=0x0000000000000004  Instr=0x00100113  x1=0  x2=1
# [45000] PC=0x0000000000000008  Instr=0x00a00193  x1=0  x2=1
# [55000] PC=0x000000000000000c  Instr=0x00100213  x1=0  x2=1
# [65000] PC=0x0000000000000010  Instr=0x002080b3  x1=1  x2=1
# [75000] PC=0x0000000000000014  Instr=0x00410133  x1=1  x2=2
# [85000] PC=0x0000000000000018  Instr=0xfe21dce3  x1=1  x2=2
# [95000] PC=0x0000000000000010  Instr=0x002080b3  x1=3  x2=2
# [105000] PC=0x0000000000000014  Instr=0x00410133  x1=3  x2=3
# [115000] PC=0x0000000000000018  Instr=0xfe21dce3  x1=3  x2=3
# [125000] PC=0x0000000000000010  Instr=0x002080b3  x1=6  x2=3
# [135000] PC=0x0000000000000014  Instr=0x00410133  x1=6  x2=4
# [145000] PC=0x0000000000000018  Instr=0xfe21dce3  x1=6  x2=4
# [155000] PC=0x0000000000000010  Instr=0x002080b3  x1=10  x2=4
# [165000] PC=0x0000000000000014  Instr=0x00410133  x1=10  x2=5
# [175000] PC=0x0000000000000018  Instr=0xfe21dce3  x1=10  x2=5
# [185000] PC=0x0000000000000010  Instr=0x002080b3  x1=15  x2=5
# [195000] PC=0x0000000000000014  Instr=0x00410133  x1=15  x2=6
# [205000] PC=0x0000000000000018  Instr=0xfe21dce3  x1=15  x2=6
# [215000] PC=0x0000000000000010  Instr=0x002080b3  x1=21  x2=6
# [225000] PC=0x0000000000000014  Instr=0x00410133  x1=21  x2=7
# [235000] PC=0x0000000000000018  Instr=0xfe21dce3  x1=21  x2=7
# [245000] PC=0x0000000000000010  Instr=0x002080b3  x1=28  x2=7
# [255000] PC=0x0000000000000014  Instr=0x00410133  x1=28  x2=8
# [265000] PC=0x0000000000000018  Instr=0xfe21dce3  x1=28  x2=8
# [275000] PC=0x0000000000000010  Instr=0x002080b3  x1=36  x2=8
# [285000] PC=0x0000000000000014  Instr=0x00410133  x1=36  x2=9
# [295000] PC=0x0000000000000018  Instr=0xfe21dce3  x1=36  x2=9
# [305000] PC=0x0000000000000010  Instr=0x002080b3  x1=45  x2=9
# [315000] PC=0x0000000000000014  Instr=0x00410133  x1=45  x2=10
# [325000] PC=0x0000000000000018  Instr=0xfe21dce3  x1=45  x2=10
# [335000] PC=0x0000000000000010  Instr=0x002080b3  x1=55  x2=10
# [345000] PC=0x0000000000000014  Instr=0x00410133  x1=55  x2=11
# [355000] PC=0x0000000000000018  Instr=0xfe21dce3  x1=55  x2=11
# [365000] PC=0x000000000000001c  Instr=0x00103023  x1=55  x2=11
# [375000] PC=0x0000000000000020  Instr=0x00003283  x1=55  x2=11
# [385000] PC=0x0000000000000024  Instr=0x0050f333  x1=55  x2=11
# [395000] PC=0x0000000000000028  Instr=0x0050e3b3  x1=55  x2=11
# [405000] PC=0x000000000000002c  Instr=0x40508433  x1=55  x2=11
# [415000] PC=0x0000000000000030  Instr=0x00001a37  x1=55  x2=11
# [425000] PC=0x0000000000000034  Instr=0x44697ab7  x1=55  x2=11
# [435000] PC=0x0000000000000038  Instr=0xe68a8a93  x1=55  x2=11
# [445000] PC=0x000000000000003c  Instr=0x020a9a93  x1=55  x2=11
# [455000] PC=0x0000000000000040  Instr=0x204b7b37  x1=55  x2=11
# [465000] PC=0x0000000000000044  Instr=0x861b0b13  x1=55  x2=11
# [475000] PC=0x0000000000000048  Instr=0x016a8ab3  x1=55  x2=11
# [485000] PC=0x000000000000004c  Instr=0x015a3023  x1=55  x2=11
# [495000] PC=0x0000000000000050  Instr=0x6e682ab7  x1=55  x2=11
# [505000] PC=0x0000000000000054  Instr=0x044a8a93  x1=55  x2=11
# [515000] PC=0x0000000000000058  Instr=0x020a9a93  x1=55  x2=11
# [525000] PC=0x000000000000005c  Instr=0x616e6b37  x1=55  x2=11
# [535000] PC=0x0000000000000060  Instr=0x780b0b13  x1=55  x2=11
# [545000] PC=0x0000000000000064  Instr=0x016a8ab3  x1=55  x2=11
# [555000] PC=0x0000000000000068  Instr=0x015a3423  x1=55  x2=11
# [565000] PC=0x000000000000006c  Instr=0x00000b13  x1=55  x2=11
# [575000] PC=0x0000000000000070  Instr=0x016a3823  x1=55  x2=11
# [585000] PC=0x0000000000000074  Instr=0x016a3c23  x1=55  x2=11
# [595000] PC=0x0000000000000078  Instr=0x036a3023  x1=55  x2=11
# [605000] PC=0x000000000000007c  Instr=0x036a3423  x1=55  x2=11
# [615000] PC=0x0000000000000080  Instr=0x036a3823  x1=55  x2=11
# [625000] PC=0x0000000000000084  Instr=0x07800b13  x1=55  x2=11
# [635000] PC=0x0000000000000088  Instr=0x036a3c23  x1=55  x2=11
# [645000] PC=0x000000000000008c  Instr=0x00100c13  x1=55  x2=11
# [655000] PC=0x0000000000000090  Instr=0x058a3023  x1=55  x2=11
# [665000] PC=0x0000000000000094  Instr=0x048a3c83  x1=55  x2=11
# [675000] PC=0x0000000000000098  Instr=0xfe0c8ee3  x1=55  x2=11
# [685000] PC=0x0000000000000094  Instr=0x048a3c83  x1=55  x2=11
# [695000] PC=0x0000000000000098  Instr=0xfe0c8ee3  x1=55  x2=11
# [705000] PC=0x0000000000000094  Instr=0x048a3c83  x1=55  x2=11
# [715000] PC=0x0000000000000098  Instr=0xfe0c8ee3  x1=55  x2=11
# [725000] PC=0x0000000000000094  Instr=0x048a3c83  x1=55  x2=11
# [735000] PC=0x0000000000000098  Instr=0xfe0c8ee3  x1=55  x2=11
# [745000] PC=0x0000000000000094  Instr=0x048a3c83  x1=55  x2=11
# [755000] PC=0x0000000000000098  Instr=0xfe0c8ee3  x1=55  x2=11
# [765000] PC=0x0000000000000094  Instr=0x048a3c83  x1=55  x2=11
# [775000] PC=0x0000000000000098  Instr=0xfe0c8ee3  x1=55  x2=11
# [785000] PC=0x0000000000000094  Instr=0x048a3c83  x1=55  x2=11
# [795000] PC=0x0000000000000098  Instr=0xfe0c8ee3  x1=55  x2=11
# [805000] PC=0x0000000000000094  Instr=0x048a3c83  x1=55  x2=11
# [815000] PC=0x0000000000000098  Instr=0xfe0c8ee3  x1=55  x2=11
# [825000] PC=0x0000000000000094  Instr=0x048a3c83  x1=55  x2=11
# [835000] PC=0x0000000000000098  Instr=0xfe0c8ee3  x1=55  x2=11
# [845000] PC=0x0000000000000094  Instr=0x048a3c83  x1=55  x2=11
# [855000] PC=0x0000000000000098  Instr=0xfe0c8ee3  x1=55  x2=11
# [865000] PC=0x0000000000000094  Instr=0x048a3c83  x1=55  x2=11
# [875000] PC=0x0000000000000098  Instr=0xfe0c8ee3  x1=55  x2=11
# [885000] PC=0x0000000000000094  Instr=0x048a3c83  x1=55  x2=11
# [895000] PC=0x0000000000000098  Instr=0xfe0c8ee3  x1=55  x2=11
# [905000] PC=0x0000000000000094  Instr=0x048a3c83  x1=55  x2=11
# [915000] PC=0x0000000000000098  Instr=0xfe0c8ee3  x1=55  x2=11
# [925000] PC=0x0000000000000094  Instr=0x048a3c83  x1=55  x2=11
# [935000] PC=0x0000000000000098  Instr=0xfe0c8ee3  x1=55  x2=11
# [945000] PC=0x0000000000000094  Instr=0x048a3c83  x1=55  x2=11
# [955000] PC=0x0000000000000098  Instr=0xfe0c8ee3  x1=55  x2=11
# [965000] PC=0x0000000000000094  Instr=0x048a3c83  x1=55  x2=11
# [975000] PC=0x0000000000000098  Instr=0xfe0c8ee3  x1=55  x2=11
# [985000] PC=0x0000000000000094  Instr=0x048a3c83  x1=55  x2=11
# [995000] PC=0x0000000000000098  Instr=0xfe0c8ee3  x1=55  x2=11
# [1005000] PC=0x0000000000000094  Instr=0x048a3c83  x1=55  x2=11
# [1015000] PC=0x0000000000000098  Instr=0xfe0c8ee3  x1=55  x2=11
# [1025000] PC=0x0000000000000094  Instr=0x048a3c83  x1=55  x2=11
# [1035000] PC=0x0000000000000098  Instr=0xfe0c8ee3  x1=55  x2=11
# [1045000] PC=0x0000000000000094  Instr=0x048a3c83  x1=55  x2=11
# [1055000] PC=0x0000000000000098  Instr=0xfe0c8ee3  x1=55  x2=11
# [1065000] PC=0x0000000000000094  Instr=0x048a3c83  x1=55  x2=11
# [1075000] PC=0x0000000000000098  Instr=0xfe0c8ee3  x1=55  x2=11
# [1085000] PC=0x0000000000000094  Instr=0x048a3c83  x1=55  x2=11
# [1095000] PC=0x0000000000000098  Instr=0xfe0c8ee3  x1=55  x2=11
# [1105000] PC=0x0000000000000094  Instr=0x048a3c83  x1=55  x2=11
# [1115000] PC=0x0000000000000098  Instr=0xfe0c8ee3  x1=55  x2=11
# [1125000] PC=0x0000000000000094  Instr=0x048a3c83  x1=55  x2=11
# [1135000] PC=0x0000000000000098  Instr=0xfe0c8ee3  x1=55  x2=11
# [1145000] PC=0x0000000000000094  Instr=0x048a3c83  x1=55  x2=11
# [1155000] PC=0x0000000000000098  Instr=0xfe0c8ee3  x1=55  x2=11
# [1165000] PC=0x0000000000000094  Instr=0x048a3c83  x1=55  x2=11
# [1175000] PC=0x0000000000000098  Instr=0xfe0c8ee3  x1=55  x2=11
# [1185000] PC=0x0000000000000094  Instr=0x048a3c83  x1=55  x2=11
# [1195000] PC=0x0000000000000098  Instr=0xfe0c8ee3  x1=55  x2=11
# [1205000] PC=0x0000000000000094  Instr=0x048a3c83  x1=55  x2=11
# [1215000] PC=0x0000000000000098  Instr=0xfe0c8ee3  x1=55  x2=11
# [1225000] PC=0x0000000000000094  Instr=0x048a3c83  x1=55  x2=11
# [1235000] PC=0x0000000000000098  Instr=0xfe0c8ee3  x1=55  x2=11
# [1245000] PC=0x0000000000000094  Instr=0x048a3c83  x1=55  x2=11
# [1255000] PC=0x0000000000000098  Instr=0xfe0c8ee3  x1=55  x2=11
# [1265000] PC=0x0000000000000094  Instr=0x048a3c83  x1=55  x2=11
# [1275000] PC=0x0000000000000098  Instr=0xfe0c8ee3  x1=55  x2=11
# [1285000] PC=0x0000000000000094  Instr=0x048a3c83  x1=55  x2=11
# [1295000] PC=0x0000000000000098  Instr=0xfe0c8ee3  x1=55  x2=11
# [1305000] PC=0x0000000000000094  Instr=0x048a3c83  x1=55  x2=11
# [1315000] PC=0x0000000000000098  Instr=0xfe0c8ee3  x1=55  x2=11
# [1325000] PC=0x0000000000000094  Instr=0x048a3c83  x1=55  x2=11
# [1335000] PC=0x0000000000000098  Instr=0xfe0c8ee3  x1=55  x2=11
# [1345000] PC=0x0000000000000094  Instr=0x048a3c83  x1=55  x2=11
# [1355000] PC=0x0000000000000098  Instr=0xfe0c8ee3  x1=55  x2=11
# [1365000] PC=0x0000000000000094  Instr=0x048a3c83  x1=55  x2=11
# [1375000] PC=0x0000000000000098  Instr=0xfe0c8ee3  x1=55  x2=11
# [1385000] PC=0x0000000000000094  Instr=0x048a3c83  x1=55  x2=11
# [1395000] PC=0x0000000000000098  Instr=0xfe0c8ee3  x1=55  x2=11
# [1405000] PC=0x0000000000000094  Instr=0x048a3c83  x1=55  x2=11
# [1415000] PC=0x0000000000000098  Instr=0xfe0c8ee3  x1=55  x2=11
# [1425000] PC=0x0000000000000094  Instr=0x048a3c83  x1=55  x2=11
# [1435000] PC=0x0000000000000098  Instr=0xfe0c8ee3  x1=55  x2=11
# [1445000] PC=0x0000000000000094  Instr=0x048a3c83  x1=55  x2=11
# [1455000] PC=0x0000000000000098  Instr=0xfe0c8ee3  x1=55  x2=11
# [1465000] PC=0x0000000000000094  Instr=0x048a3c83  x1=55  x2=11
# [1475000] PC=0x0000000000000098  Instr=0xfe0c8ee3  x1=55  x2=11
# [1485000] PC=0x0000000000000094  Instr=0x048a3c83  x1=55  x2=11
# [1495000] PC=0x0000000000000098  Instr=0xfe0c8ee3  x1=55  x2=11
# [1505000] PC=0x0000000000000094  Instr=0x048a3c83  x1=55  x2=11
# [1515000] PC=0x0000000000000098  Instr=0xfe0c8ee3  x1=55  x2=11
# [1525000] PC=0x0000000000000094  Instr=0x048a3c83  x1=55  x2=11
# [1535000] PC=0x0000000000000098  Instr=0xfe0c8ee3  x1=55  x2=11
# [1545000] PC=0x0000000000000094  Instr=0x048a3c83  x1=55  x2=11
# [1555000] PC=0x0000000000000098  Instr=0xfe0c8ee3  x1=55  x2=11
# [1565000] PC=0x0000000000000094  Instr=0x048a3c83  x1=55  x2=11
# [1575000] PC=0x0000000000000098  Instr=0xfe0c8ee3  x1=55  x2=11
# [1585000] PC=0x0000000000000094  Instr=0x048a3c83  x1=55  x2=11
# [1595000] PC=0x0000000000000098  Instr=0xfe0c8ee3  x1=55  x2=11
# [1605000] PC=0x0000000000000094  Instr=0x048a3c83  x1=55  x2=11
# [1615000] PC=0x0000000000000098  Instr=0xfe0c8ee3  x1=55  x2=11
# [1625000] PC=0x0000000000000094  Instr=0x048a3c83  x1=55  x2=11
# [1635000] PC=0x0000000000000098  Instr=0xfe0c8ee3  x1=55  x2=11
# [1645000] PC=0x0000000000000094  Instr=0x048a3c83  x1=55  x2=11
# [1655000] PC=0x0000000000000098  Instr=0xfe0c8ee3  x1=55  x2=11
# [1665000] PC=0x0000000000000094  Instr=0x048a3c83  x1=55  x2=11
# [1675000] PC=0x0000000000000098  Instr=0xfe0c8ee3  x1=55  x2=11
# [1685000] PC=0x0000000000000094  Instr=0x048a3c83  x1=55  x2=11
# [1695000] PC=0x0000000000000098  Instr=0xfe0c8ee3  x1=55  x2=11
# [1705000] PC=0x0000000000000094  Instr=0x048a3c83  x1=55  x2=11
# [1715000] PC=0x0000000000000098  Instr=0xfe0c8ee3  x1=55  x2=11
# [1725000] PC=0x0000000000000094  Instr=0x048a3c83  x1=55  x2=11
# [1735000] PC=0x0000000000000098  Instr=0xfe0c8ee3  x1=55  x2=11
# [1745000] PC=0x0000000000000094  Instr=0x048a3c83  x1=55  x2=11
# [1755000] PC=0x0000000000000098  Instr=0xfe0c8ee3  x1=55  x2=11
# [1765000] PC=0x0000000000000094  Instr=0x048a3c83  x1=55  x2=11
# [1775000] PC=0x0000000000000098  Instr=0xfe0c8ee3  x1=55  x2=11
# [1785000] PC=0x0000000000000094  Instr=0x048a3c83  x1=55  x2=11
# [1795000] PC=0x0000000000000098  Instr=0xfe0c8ee3  x1=55  x2=11
# [1805000] PC=0x0000000000000094  Instr=0x048a3c83  x1=55  x2=11
# [1815000] PC=0x0000000000000098  Instr=0xfe0c8ee3  x1=55  x2=11
# [1825000] PC=0x0000000000000094  Instr=0x048a3c83  x1=55  x2=11
# [1835000] PC=0x0000000000000098  Instr=0xfe0c8ee3  x1=55  x2=11
# [1845000] PC=0x0000000000000094  Instr=0x048a3c83  x1=55  x2=11
# [1855000] PC=0x0000000000000098  Instr=0xfe0c8ee3  x1=55  x2=11
# [1865000] PC=0x000000000000009c  Instr=0x050a3d03  x1=55  x2=11
# [1875000] PC=0x00000000000000a0  Instr=0x058a3d83  x1=55  x2=11
# [1885000] PC=0x00000000000000a4  Instr=0x060a3e03  x1=55  x2=11
# [1895000] PC=0x00000000000000a8  Instr=0x068a3e83  x1=55  x2=11
# [1905000] PC=0x00000000000000ac  Instr=0x05a03023  x1=55  x2=11
# [1915000] PC=0x00000000000000b0  Instr=0x05b03423  x1=55  x2=11
# [1925000] PC=0x00000000000000b4  Instr=0x05c03823  x1=55  x2=11
# [1935000] PC=0x00000000000000b8  Instr=0x05d03c23  x1=55  x2=11
# [1945000] PC=0x00000000000000bc  Instr=0x00000063  x1=55  x2=11
# [1955000] PC=0x00000000000000bc  Instr=0x00000063  x1=55  x2=11
# [1965000] PC=0x00000000000000bc  Instr=0x00000063  x1=55  x2=11
# [1975000] PC=0x00000000000000bc  Instr=0x00000063  x1=55  x2=11
# [1985000] PC=0x00000000000000bc  Instr=0x00000063  x1=55  x2=11
# [1995000] PC=0x00000000000000bc  Instr=0x00000063  x1=55  x2=11
# [2005000] PC=0x00000000000000bc  Instr=0x00000063  x1=55  x2=11
# [2015000] PC=0x00000000000000bc  Instr=0x00000063  x1=55  x2=11
# [2025000] PC=0x00000000000000bc  Instr=0x00000063  x1=55  x2=11
# [2035000] PC=0x00000000000000bc  Instr=0x00000063  x1=55  x2=11
# [2045000] PC=0x00000000000000bc  Instr=0x00000063  x1=55  x2=11
# [2055000] PC=0x00000000000000bc  Instr=0x00000063  x1=55  x2=11
# [2065000] PC=0x00000000000000bc  Instr=0x00000063  x1=55  x2=11
# [2075000] PC=0x00000000000000bc  Instr=0x00000063  x1=55  x2=11
# [2085000] PC=0x00000000000000bc  Instr=0x00000063  x1=55  x2=11
# [2095000] PC=0x00000000000000bc  Instr=0x00000063  x1=55  x2=11
# [2105000] PC=0x00000000000000bc  Instr=0x00000063  x1=55  x2=11
# [2115000] PC=0x00000000000000bc  Instr=0x00000063  x1=55  x2=11
# [2125000] PC=0x00000000000000bc  Instr=0x00000063  x1=55  x2=11
# [2135000] PC=0x00000000000000bc  Instr=0x00000063  x1=55  x2=11
# [2145000] PC=0x00000000000000bc  Instr=0x00000063  x1=55  x2=11
# [2155000] PC=0x00000000000000bc  Instr=0x00000063  x1=55  x2=11
# [2165000] PC=0x00000000000000bc  Instr=0x00000063  x1=55  x2=11
# [2175000] PC=0x00000000000000bc  Instr=0x00000063  x1=55  x2=11
# [2185000] PC=0x00000000000000bc  Instr=0x00000063  x1=55  x2=11
# [2195000] PC=0x00000000000000bc  Instr=0x00000063  x1=55  x2=11
# [2205000] PC=0x00000000000000bc  Instr=0x00000063  x1=55  x2=11
# [2215000] PC=0x00000000000000bc  Instr=0x00000063  x1=55  x2=11
# [2225000] PC=0x00000000000000bc  Instr=0x00000063  x1=55  x2=11
# [2235000] PC=0x00000000000000bc  Instr=0x00000063  x1=55  x2=11
# [2245000] PC=0x00000000000000bc  Instr=0x00000063  x1=55  x2=11
# [2255000] PC=0x00000000000000bc  Instr=0x00000063  x1=55  x2=11
# [2265000] PC=0x00000000000000bc  Instr=0x00000063  x1=55  x2=11
# [2275000] PC=0x00000000000000bc  Instr=0x00000063  x1=55  x2=11
# [2285000] PC=0x00000000000000bc  Instr=0x00000063  x1=55  x2=11
# [2295000] PC=0x00000000000000bc  Instr=0x00000063  x1=55  x2=11
# [2305000] PC=0x00000000000000bc  Instr=0x00000063  x1=55  x2=11
# [2315000] PC=0x00000000000000bc  Instr=0x00000063  x1=55  x2=11
# [2325000] PC=0x00000000000000bc  Instr=0x00000063  x1=55  x2=11
# [2335000] PC=0x00000000000000bc  Instr=0x00000063  x1=55  x2=11
# [2345000] PC=0x00000000000000bc  Instr=0x00000063  x1=55  x2=11
# [2355000] PC=0x00000000000000bc  Instr=0x00000063  x1=55  x2=11
# [2365000] PC=0x00000000000000bc  Instr=0x00000063  x1=55  x2=11
# [2375000] PC=0x00000000000000bc  Instr=0x00000063  x1=55  x2=11
# [2385000] PC=0x00000000000000bc  Instr=0x00000063  x1=55  x2=11
# [2395000] PC=0x00000000000000bc  Instr=0x00000063  x1=55  x2=11
# [2405000] PC=0x00000000000000bc  Instr=0x00000063  x1=55  x2=11
# [2415000] PC=0x00000000000000bc  Instr=0x00000063  x1=55  x2=11
# [2425000] PC=0x00000000000000bc  Instr=0x00000063  x1=55  x2=11
# [2435000] PC=0x00000000000000bc  Instr=0x00000063  x1=55  x2=11
# [2445000] PC=0x00000000000000bc  Instr=0x00000063  x1=55  x2=11
# [2455000] PC=0x00000000000000bc  Instr=0x00000063  x1=55  x2=11
# [2465000] PC=0x00000000000000bc  Instr=0x00000063  x1=55  x2=11
# [2475000] PC=0x00000000000000bc  Instr=0x00000063  x1=55  x2=11
# [2485000] PC=0x00000000000000bc  Instr=0x00000063  x1=55  x2=11
# [2495000] PC=0x00000000000000bc  Instr=0x00000063  x1=55  x2=11
# [2505000] PC=0x00000000000000bc  Instr=0x00000063  x1=55  x2=11
# [2515000] PC=0x00000000000000bc  Instr=0x00000063  x1=55  x2=11
# [2525000] PC=0x00000000000000bc  Instr=0x00000063  x1=55  x2=11
# [2535000] PC=0x00000000000000bc  Instr=0x00000063  x1=55  x2=11
# [2545000] PC=0x00000000000000bc  Instr=0x00000063  x1=55  x2=11
# [2555000] PC=0x00000000000000bc  Instr=0x00000063  x1=55  x2=11
# [2565000] PC=0x00000000000000bc  Instr=0x00000063  x1=55  x2=11
# [2575000] PC=0x00000000000000bc  Instr=0x00000063  x1=55  x2=11
# [2585000] PC=0x00000000000000bc  Instr=0x00000063  x1=55  x2=11
# [2595000] PC=0x00000000000000bc  Instr=0x00000063  x1=55  x2=11
# [2605000] PC=0x00000000000000bc  Instr=0x00000063  x1=55  x2=11
# [2615000] PC=0x00000000000000bc  Instr=0x00000063  x1=55  x2=11
# [2625000] PC=0x00000000000000bc  Instr=0x00000063  x1=55  x2=11
# [2635000] PC=0x00000000000000bc  Instr=0x00000063  x1=55  x2=11
# [2645000] PC=0x00000000000000bc  Instr=0x00000063  x1=55  x2=11
# [2655000] PC=0x00000000000000bc  Instr=0x00000063  x1=55  x2=11
# [2665000] PC=0x00000000000000bc  Instr=0x00000063  x1=55  x2=11
# [2675000] PC=0x00000000000000bc  Instr=0x00000063  x1=55  x2=11
# [2685000] PC=0x00000000000000bc  Instr=0x00000063  x1=55  x2=11
# [2695000] PC=0x00000000000000bc  Instr=0x00000063  x1=55  x2=11
# [2705000] PC=0x00000000000000bc  Instr=0x00000063  x1=55  x2=11
# [2715000] PC=0x00000000000000bc  Instr=0x00000063  x1=55  x2=11
# [2725000] PC=0x00000000000000bc  Instr=0x00000063  x1=55  x2=11
# [2735000] PC=0x00000000000000bc  Instr=0x00000063  x1=55  x2=11
# [2745000] PC=0x00000000000000bc  Instr=0x00000063  x1=55  x2=11
# [2755000] PC=0x00000000000000bc  Instr=0x00000063  x1=55  x2=11
# [2765000] PC=0x00000000000000bc  Instr=0x00000063  x1=55  x2=11
# [2775000] PC=0x00000000000000bc  Instr=0x00000063  x1=55  x2=11
# [2785000] PC=0x00000000000000bc  Instr=0x00000063  x1=55  x2=11
# [2795000] PC=0x00000000000000bc  Instr=0x00000063  x1=55  x2=11
# [2805000] PC=0x00000000000000bc  Instr=0x00000063  x1=55  x2=11
# [2815000] PC=0x00000000000000bc  Instr=0x00000063  x1=55  x2=11
# [2825000] PC=0x00000000000000bc  Instr=0x00000063  x1=55  x2=11
# [2835000] PC=0x00000000000000bc  Instr=0x00000063  x1=55  x2=11
# [2845000] PC=0x00000000000000bc  Instr=0x00000063  x1=55  x2=11
# [2855000] PC=0x00000000000000bc  Instr=0x00000063  x1=55  x2=11
# [2865000] PC=0x00000000000000bc  Instr=0x00000063  x1=55  x2=11
# [2875000] PC=0x00000000000000bc  Instr=0x00000063  x1=55  x2=11
# [2885000] PC=0x00000000000000bc  Instr=0x00000063  x1=55  x2=11
# [2895000] PC=0x00000000000000bc  Instr=0x00000063  x1=55  x2=11
# [2905000] PC=0x00000000000000bc  Instr=0x00000063  x1=55  x2=11
# [2915000] PC=0x00000000000000bc  Instr=0x00000063  x1=55  x2=11
# [2925000] PC=0x00000000000000bc  Instr=0x00000063  x1=55  x2=11
# [2935000] PC=0x00000000000000bc  Instr=0x00000063  x1=55  x2=11
# [2945000] PC=0x00000000000000bc  Instr=0x00000063  x1=55  x2=11
# [2955000] PC=0x00000000000000bc  Instr=0x00000063  x1=55  x2=11
# [2965000] PC=0x00000000000000bc  Instr=0x00000063  x1=55  x2=11
# [2975000] PC=0x00000000000000bc  Instr=0x00000063  x1=55  x2=11
# [2985000] PC=0x00000000000000bc  Instr=0x00000063  x1=55  x2=11
# [2995000] PC=0x00000000000000bc  Instr=0x00000063  x1=55  x2=11
# [3005000] PC=0x00000000000000bc  Instr=0x00000063  x1=55  x2=11
# [3015000] PC=0x00000000000000bc  Instr=0x00000063  x1=55  x2=11
# ============================================
# RISC-V 64-bit Datapath - Simulation Results
# ============================================
# Time = 3020000 ns
# 
# --- Register File Contents ---
# x0  = 0 (0x0000000000000000)
# x1  = 55 (0x0000000000000037)
# x2  = 11 (0x000000000000000b)
# x3  = 10 (0x000000000000000a)
# x4  = 1 (0x0000000000000001)
# x5  = 55 (0x0000000000000037)
# x6  = 55 (0x0000000000000037)
# x7  = 55 (0x0000000000000037)
# x8  = 0 (0x0000000000000000)
# x9  = 0 (0x0000000000000000)
# x10 = 0 (0x0000000000000000)
# x11 = 0 (0x0000000000000000)
# x12 = 0 (0x0000000000000000)
# x13 = 0 (0x0000000000000000)
# x14 = 0 (0x0000000000000000)
# x15 = 0 (0x0000000000000000)
# x16 = 0 (0x0000000000000000)
# x17 = 0 (0x0000000000000000)
# x18 = 0 (0x0000000000000000)
# x19 = 0 (0x0000000000000000)
# x20 = 4096 (0x0000000000001000)
# x21 = 7955644219814471552 (0x6e682044616e6780)
# x22 = 120 (0x0000000000000078)
# x23 = 0 (0x0000000000000000)
# x24 = 1 (0x0000000000000001)
# x25 = 1 (0x0000000000000001)
# x26 = 8684569200163051518 (0x7885c9acbb0457fe)
# x27 = 15811508484761573174 (0xdb6dc331a549d736)
# x28 = 3988893972521659723 (0x375b65ef16d9ad4b)
# x29 = 9891695640693618897 (0x89465cc6d9d2b8d1)
# x30 = 0 (0x0000000000000000)
# x31 = 0 (0x0000000000000000)
# 
# === Part 1: Sum of 1..10 ===
# PASS: x1 = 55 (sum of 1..10)
# PASS: x2 = 11 (counter after loop)
# PASS: x3 = 10 (limit)
# PASS: x5 = 55 (loaded from memory)
# PASS: x6 = 55 (AND result)
# PASS: x7 = 55 (OR result)
# PASS: x8 = 0 (SUB result)
# 
# === Part 2: SHA-256 Hash of "abc" ===
# Expected: ba7816bf 8f01cfea 414140de 5dae2223
#           b00361a3 96177a9c b410ff61 f20015ad
# 
# SHA-256 Done = 1
# 
# Hash H0:H1 (x26) = 0x7885c9acbb0457fe
# Hash H2:H3 (x27) = 0xdb6dc331a549d736
# Hash H4:H5 (x28) = 0x375b65ef16d9ad4b
# Hash H6:H7 (x29) = 0x89465cc6d9d2b8d1
# 
# SHA-256 Engine Output:
#   H0 = 7885c9ac  (expect ba7816bf)
#   H1 = bb0457fe  (expect 8f01cfea)
#   H2 = db6dc331  (expect 414140de)
#   H3 = a549d736  (expect 5dae2223)
#   H4 = 375b65ef  (expect 510e527f -> b00361a3)
#   H5 = 16d9ad4b  (expect 9b05688c -> 96177a9c)
#   H6 = 89465cc6  (expect 1f83d9ab -> b410ff61)
#   H7 = d9d2b8d1  (expect 5be0cd19 -> f20015ad)
# 
# SHA-256 FAIL: Hash does NOT match expected value.
# 
# --- Data Memory[0] ---
# mem[0] = 0x0000000000000037
# 
# --- Final PC ---
# PC = 0x00000000000000bc
# ============================================
# Simulation Complete
# ============================================
# ** Note: $stop    : riscv_tb.v(156)
#    Time: 3020 ns  Iteration: 0  Instance: /riscv_tb
# Break in Module riscv_tb at riscv_tb.v line 156
# Stopped at riscv_tb.v line 156
#  quit
# End time: 12:45:49 on Mar 11,2026, Elapsed time: 0:00:02
# Errors: 0, Warnings: 3
